748-21-155СП$БАЛАНСИР$19 425,00
748-21-157СП$БАЛАНСИР$12 529,00
Кат-20-125-01 $БАЛКА ЖЕСТКАЯ БОЛОТНАЯ$22 170,80
КАТ 20.20 (аналог Кат-20-125)$БАЛКА ПОПЕРЕЧНАЯ$20 085,00
КАТ 24Б.20.20 (аналог Кат-20-125-01)$БАЛКА ПОПЕРЕЧНАЯ$24 720,00
50-50-210СП$БАЛКА РЫХЛИТЕЛЯ$41 200,00
КАТ 80-52-19$БУЛЬДОЗЕРНОЕ ОБОРУДОВАНИЕ$221 450,00
КАТ 70-52-00$БУЛЬДОЗЕРНОЕ ОБОРУДОВАНИЕ$238 617,00
КАТ 80-52-20$БУЛЬДОЗЕРНОЕ ОБОРУДОВАНИЕ$221 450,00
КАТ-22-38-500$ГУСЕНИЦА СЕРИЙНАЯ$120 327,60
КАТ-22-42-500$ГУСЕНИЦА 42 звена; сер.башмак$140 595,00
КАТ-22-42-500Л(500П)$ГУСЕНИЦА 42 звена; башмак 500Л/500П$151 410,00
КАТ-22-42-600Л(600П)$ГУСЕНИЦА 42 звена; башмак 600Л/600П$158 452,00
КАТ-22-44-500$ГУСЕНИЦА 44 звена; сер.башмак$147 084,00
КАТ-22-45-500$ГУСЕНИЦА 45 звен.; сер.башмак$151 410,00
КАТ-22-45-560$ГУСЕНИЦА (Б 12) 45 звена.; 560 мм$157 899,00
КАТ-22-45-690$ГУСЕНИЦА (Т/Ук) 45 звена; 690мм$170 877,00
КАТ-22-45-900$ГУСЕНИЦА Б/Х$192 507,00
КАТ-22У-38-500$ГУСЕНИЦА СЕРИИНАЯ (смаз.шарнир)$130 861,50
КАТ-22У-41-500$ГУСЕНИЦА(41 зв.; сер.баш. смаз. шар.)$143 334,80
КАТ-22У-42-500$ГУСЕНИЦА(42 зв.; сер.баш. смаз. шар.)$144 921,00
КАТ-22У-44-500$ГУСЕНИЦА(44 зв.; сер.баш. смаз. шар.)$154 350,00
КАТ-22У-45-500$ГУСЕНИЦА (45 зв..; сер.баш. смаз. шар)$155 736,00
КАТ-22У-45-560$ГУСЕНИЦА (Б12) (45 зв.;560 мм, смаз. шар.)$165 469,50
КАТ-22У-45-690$ГУСЕНИЦА (Т/Ук) 45 зв.; 690 мм; смаз.шар)$174 121,50
КАТ-22У-49-690$ГУСЕНИЦА (49 зв.; 690 мм; смаз.шар)$197 049,30
КАТ-22У-45-900$ГУСЕНИЦА Б/Х (смаз. шар)$197 914,50
КАТ-22У-49-600Л(600П)$ГУСЕНИЦА(44 зв.; сер.баш. смаз. шар.с башм. 600Л/600П)$183 195,80
50-51-118СП$ЖПУ$11 896,50
50-50-104СП$ЗУБ$23 252,30
Кат-21-169$КАТОК ОДНОБОРТ.(на подш.качения)$8 965,60
Кат-21-170$КАТОК ДВУБОРТ.(на подш.качения)$8 965,60
Кат-21-169А$КАТОК ОДНОБОРТНЫЙ (на втулках)$7 705,00
Кат-21-170А$КАТОК ДВУБОРТНЫЙ (на втулках)$7 705,00
КАТ-21-169В$КАТОК ОДНОБОРТНЫЙ (на втулках)$9 888,00
КАТ-21-170В$КАТОК ДВУБОРТНЫЙ (на втулках)$9 888,00
Кат-21-416сп$КАТОК ПОДДЕРЖ.(с доуконом)$8 884,80
Кат-21-425сп$КАТОК ПОДДЕРЖ. (с доуконом )$8 050,40
748-21-169сп$КАТОК С БАЛАНСИРОМ$50 460,00
748-21-162сп$КАТОК $5 644,00
Кат-33-169-01сп$КАТОК С БАЛАНСИРОМ$49 655,00
50-21-177сп$КЛАПАН$227,90
Кат-21-305$КОЛЕСО НАТЯЖНОЕ (лев.)$25 446,05
Кат-21-306$КОЛЕСО НАТЯЖНОЕ (прав.)$25 446,05
Кат-21-305-05$КОЛЕСО НАТЯЖНОЕ лев. (Б10)$26 205,00
Кат-21-306-05$КОЛЕСО НАТЯЖНОЕ прав. (Б 10)$26 205,00
Кат-19-182$КОЛЕСО СЕГМЕНТНОЕ$18 601,80
64-19-107СП$КОЛЕСО ВЕДУЩЕЕ $25 415,30
Кат-18360-01$ЛЕНТА ТОРМОЗА$1 379,40
Кат-21-134$МЕХАНИЗМ НАТЯЖЕНИЯ$2 643,90
Кат-21-420/420-01$МЕХАНИЗМ НАТЯЖЕНИЯ$3 678,20
Кат-21-132$МЕХАНИЗМ СДАВАНИЯ$12 549,50
Кат-21-5132$МЕХАНИЗМ СДАВАНИЯ$10 048,50
24-21-148сп / 149сп$ОПОРА В СБОРЕ$3 543,00
50-21-423сп / 424сп$ОПОРА (цельнолитая)$3 579,00
50-50-138сп$ПРИЦЕПНАЯ СЕРЬГА$3 580,80
50-21-390-01СП/391-01сп$РАМА ТЕЛЕЖКИ (5-ти катковая под балку)$198 790,00
50-21-398-01СП/399-01сп$РАМА ТЕЛЕЖКИ (6-ти катковая под балку)$209 090,00
48-21-154-02сп/155-02сп$РАМА ТЕЛЕЖКИ(7-ми катковая под балку)$216 300,00
50-50-103сп$РАМА$29 756,70
50-50-248сп$РАМА$33 433,80
50-21-392-01СП/393-01сп$ТЕЛЕЖКА (5-ти катковая под балку)$324 450,00
50-21-400-01сп/401-01сп$ТЕЛЕЖКА (6-ти катковая под балку)$339 900,00
48-21-156-01сп/157-01сп$ТЕЛЕЖКА (7-ми катковая под балку)$365 650,00
Кат-21-165$РОЛИК ОДНОБОРТНЫЙ$4 109,70
Кат-21-166$РОЛИК ДВУБОРТНЫЙ$4 726,20
50-21-417сп$РОЛИК ПОДДЕРЖИВАЮЩИЙ$3 969,10
Кат-50-12$РЫХЛИТЕЛЬНОЕ ОБОРУДОВАНИЕ$168 240,20
Кат-50-8$РЫХЛИТ.ОБОРУД$224 694,50
24-21-119СП$УПОР$1 603,00
50-21-419СП$УПОР$339,00
Кат-22-38-000$ЦЕПЬ ГУСЕНИЧНАЯ СЕРИЙНАЯ$71 626,20
Кат-22-42-000$ЦЕПЬ ГУСЕНИЧН. 42 звена$80 571,75
Кат-22-45-000$ЦЕПЬ ГУСЕНИЧН. Б/Х$86 520,00
Кат-22-49-000$ЦЕПЬ ГУСЕНИЧН. 49 зв.$94 228,50
КАТ-22У-38-000$ЦЕПЬ ГУ СЕНИЧ.СЕРИЙНАЯ ( смаз.шарн)$76 426,00
КАТ-22У-42-000$ЦЕПЬ ГУСЕНИЧН. (42 зв. смаз. шарн.)$84 460,00
КАТ-22У-44-000$ЦЕПЬ ГУСЕНИЧН. (44 зв. смаз. шарн.)$88 497,60
КАТ-22У-45-000$ЦЕПЬ ГУСЕНИЧН. (45 зв. смаз.шарн) $90 640,00
50-21-136СП$ЦИЛИНДР$1 680,00
24-21-173СП$ШАЙБА УПОРНАЯ$383,00
24-21-147СП$ШАЙБА УПОРНАЯ В СБОРЕ$659,00
50-22-32$БАШМАК  (500мм)$1 513,70
66-22-1$БАШМАК  (560мм)$1 631,50
66-22-1-03$БАШМАК  (690мм)$1 904,50
66-22-1-04$БАШМАК  (900мм)$2 553,40
500Л/500П$БАШМАК АССИМЕТРИЧНЫЙ$1 735,60
700-28-2587$БОЛТ $97,00
700-28-2496$БОЛТ $898,90
700-51-2080$БОНКА $60,00
50-19-160-1$ВЕНЕЦ ВЕДУЩ.КОЛЕСА$8 111,30
50-21-63$ВИЛКА$1 989,00
50-21-402$ВТУЛКА$452,00
50-21-434$ВТУЛКА ДИСТАНЦИОННАЯ$115,00
50-21-434-01$ВТУЛКА$174,00
50-50-5$ВТУЛКА$485,00
24-22-3$ВТУЛКА $352,30
24-22-4$ВТУЛКА $352,30
80-52-128$ВТУЛКА $771,00
700-30-2195$ГАЙКА$98,00
50-22-7/8$ЗВЕНО$783,80
50-19-99$КОЛЕСО ВЕДУЩЕЕ $8 291,50
50-21-212$КОЛЕСО НАТЯЖНОЕ$10 335,00
24-21-126$КОЛЬЦО $99,00
24-21-127$КОЛЬЦО $99,00
24-21-155$КОЛЬЦО $84,00
24-21-156$КОЛЬЦО $84,00
50-50-170$КОЛЬЦО $241,40
700-58-2273$КОЛЬЦО $13,00
22109$КОНУС$236,00
50-21-164$КОРПУС $86,00
50-21-314-01$КРОНШТЕЙН$1 952,00
24-21-148/149$КРЫШКА$587,00
50-21-398$ЛАБИРИНТ$249,00
Кат-40-5432$МАНЖЕТА$86,00
24-21-72$НАКЛАДКА $249,00
50-50-83$НАКОНЕЧНИК$945,00
80-52-61$НОЖ СРЕДНИИ$2 781,00
211220$ОБОИМА $8,00
24-21-130$ОБОИМА $9,00
211236$ОСЬ$1 182,00
24-21-123 / 123-01$ОСЬ$1 505,00
50-21-396$ОСЬ $1 199,00
Кат-21-15$ОСЬ$1 910,00
20445$ОСЬ$154,00
24-22-6$ПАЛЕЦ$265,80
24-22-7$ПАЛЕЦ ЗАМЫКАЮЩИМ$548,00
50-50-169$ПАЛЕЦ$1 146,60
50-50-61$ПАЛЕЦ$183,79
20446$ПЛАНКА$23,00
50-21-419$ПОРШЕНЬ$888,00
700-37-2236$ПРОБКА $38,00
Кат-21-13$ПРОБКА $26,00
21-21-8$ПРОКЛАДКА $8,00
21443$ПРОКЛАДКА $5,00
24-21-44-01$ПРОКЛАДКА $8,00
24-21-95$ПРОКЛАДКА $4,00
50-21-244$ПРОКЛАДКА $5,00
Кат-40-5019$ПРОКЛАДКА $56,00
50-21-245$ПРОСТАВКА $60,00
24-22-5$ПРОСТАВКА$96,80
50-50-60$ПРОТЕКТОР$700,00
700-38-2568$ПРУЖИНА$74,00
700-38-2752$ПРУЖИНА$57,50
50-19-201$СЕГМЕНТ  $1 246,30
18-21-45$СТОПОР $75,00
50-50-91$СТОПОР $586,00
50-21-69$СТОПОР $7,00
50-19-200$СТУПИЦА$8 984,00
50-21-404$ТОЛКАТЕЛЬ $455,00
50-50-42$УПОР$1 683,90
50-21-145$ФИКСАТОР$22,00
50-21-285$ФЛАНЕЦ$1 165,50
50-50-62$ЧЕКА ПРУЖИННАЯ $31,00
211238$ШАЙБА$214,00
24-21-129$ШАЙБА$233,00
50-50-63$ШАЙБА$4,00
700-31-2558$ШАЙБА$4,00
748-21-217$ШАЙБА$670,00
748-19-1$ВЕНЕЦ ВЕДУЩ.КОЛЕСА$14 677,50
748-21-213$ВТУЛКА $226,00
748-21-216$КОЛЬЦО$810,00
748-21-222$КРЫШКА$1 460,00
748-21-223$КРЫШКА$922,00
748-21-80$ОСЬ КАТКА$3 935,00
